…
1.  What is the relationship between tree age and height?

<!-- -->

    age_data <- vancouver_trees %>%
      mutate(year_planted = as.numeric(format(as.Date(date_planted), "%Y")))

    result <- age_data %>%
      group_by(year_planted) %>%
      summarize(avg_diameter = mean(diameter),
                avg_height = mean(height_range_id)) 

    result

    ## # A tibble: 32 × 3
    ##    year_planted avg_diameter avg_height
    ##           <dbl>        <dbl>      <dbl>
    ##  1         1989        11.7        2.51
    ##  2         1990        11.0        2.50
    ##  3         1991         9.23       2.68
    ##  4         1992         9.55       3.00
    ##  5         1993         9.75       2.57
    ##  6         1994         8.05       2.40
    ##  7         1995         7.88       2.34
    ##  8         1996         8.06       2.37
    ##  9         1997         7.63       2.35
    ## 10         1998         7.90       2.43
    ## # ℹ 22 more rows
…
